{
    "hash": {
        "method": "sha256",
        "encoding": "hex",
        "key": "4MfkV+KWp9KH4xCfzHt16ATs5GZYcDaREflG+1yCWms="
    },

    "cipher": {
        "method": "aes256",
        "encoding": "base64",
        "key": "jMa+YBcfwojkDd+5fCUp6Ss69QPHq/eKhe05jYLzes4="
    }
}
